[
  {
    "id": 570501,
    "account_id": "20769091",
    "user_id": "rjohnson@customerlobby.com",
    "last_updated": "2015-08-03T00:07:19.203",
    "contact_name": "999",
    "billing_name": "David",
    "billing_address_1": "david street",
    "billing_address_2": "sf",
    "billing_address_3": "ca",
    "shipping_name": "",
    "shipping_address_1": "",
    "shipping_address_2": "",
    "shipping_address_3": "",
    "email": "david@david.com",
    "phone": "999",
    "mobile": "999",
    "fax": "999",
    "pager": "9999",
    "website": "999",
    "other": "",
    "terms": "",
    "notes": "",
    "taxnumber": ""
  },
  {
    "id": 570520,
    "account_id": "20769091",
    "user_id": "rjohnson@customerlobby.com",
    "last_updated": "2015-08-03T00:06:49.02",
    "contact_name": "",
    "billing_name": "Shiv",
    "billing_address_1": "",
    "billing_address_2": "",
    "billing_address_3": "",
    "shipping_name": "",
    "shipping_address_1": "",
    "shipping_address_2": "",
    "shipping_address_3": "",
    "email": "poo@poo.com",
    "phone": "",
    "mobile": "",
    "fax": "",
    "pager": "",
    "website": "",
    "other": "",
    "terms": "",
    "notes": "",
    "taxnumber": ""
  }
]
